<?xml version="1.0" encoding="utf-8"?>
<!-- Generator: Adobe Illustrator 15.0.2, SVG Export Plug-In . SVG Version: 6.00 Build 0)  -->
<!DOCTYPE svg PUBLIC "-//W3C//DTD SVG 1.1//EN" "http://www.w3.org/Graphics/SVG/1.1/DTD/svg11.dtd">
<svg version="1.1" id="Layer_1" xmlns="http://www.w3.org/2000/svg" xmlns:xlink="http://www.w3.org/1999/xlink" x="0px" y="0px"
	 width="336.126px" height="43.176px" viewBox="0 0 336.126 43.176" enable-background="new 0 0 336.126 43.176"
	 xml:space="preserve">
<g>
	<path fill="#FFFFFF" stroke="#FFFFFF" stroke-miterlimit="10" d="M35.18,42.5c-0.48,0-0.9-0.18-1.26-0.54
		c-0.36-0.36-0.54-0.78-0.54-1.26v-14.64H9.56V40.7c0,0.479-0.17,0.899-0.51,1.26C8.71,42.32,8.28,42.5,7.76,42.5H2.3
		c-0.521,0-0.951-0.18-1.29-0.54C0.67,41.6,0.5,41.18,0.5,40.7V2.3c0-0.48,0.17-0.9,0.51-1.26C1.35,0.68,1.78,0.5,2.3,0.5h5.46
		c0.52,0,0.95,0.18,1.29,0.54C9.39,1.4,9.56,1.82,9.56,2.3v14.64h23.82V2.3c0-0.48,0.18-0.9,0.54-1.26
		c0.36-0.36,0.78-0.54,1.26-0.54h5.52c0.48,0,0.9,0.18,1.26,0.54C42.32,1.4,42.5,1.82,42.5,2.3v38.4c0,0.479-0.18,0.899-0.54,1.26
		c-0.36,0.36-0.78,0.54-1.26,0.54H35.18z"/>
	<path fill="#FFFFFF" stroke="#FFFFFF" stroke-miterlimit="10" d="M83.839,42.5c-0.48,0-0.9-0.18-1.26-0.54
		c-0.36-0.36-0.54-0.78-0.54-1.26v-14.64h-23.82V40.7c0,0.479-0.17,0.899-0.51,1.26c-0.34,0.36-0.771,0.54-1.29,0.54h-5.46
		c-0.521,0-0.951-0.18-1.29-0.54c-0.34-0.36-0.51-0.78-0.51-1.26V2.3c0-0.48,0.17-0.9,0.51-1.26c0.339-0.36,0.77-0.54,1.29-0.54
		h5.46c0.52,0,0.95,0.18,1.29,0.54c0.339,0.36,0.51,0.78,0.51,1.26v14.64h23.82V2.3c0-0.48,0.18-0.9,0.54-1.26
		c0.36-0.36,0.78-0.54,1.26-0.54h5.52c0.48,0,0.9,0.18,1.26,0.54c0.36,0.36,0.54,0.78,0.54,1.26v38.4c0,0.479-0.18,0.899-0.54,1.26
		c-0.36,0.36-0.78,0.54-1.26,0.54H83.839z"/>
	<path fill="#FFFFFF" stroke="#FFFFFF" stroke-miterlimit="10" d="M95.719,23.84c-0.521,0-0.95-0.119-1.29-0.359
		s-0.51-0.52-0.51-0.84v-3.6c0-0.32,0.17-0.6,0.51-0.84c0.34-0.24,0.77-0.36,1.29-0.36h26.399c0.48,0,0.9,0.12,1.261,0.36
		c0.359,0.24,0.54,0.52,0.54,0.84v3.6c0,0.32-0.181,0.6-0.54,0.84c-0.36,0.24-0.78,0.359-1.261,0.359H95.719z"/>
	<path fill="#FFFFFF" stroke="#FFFFFF" stroke-miterlimit="10" d="M168.56,42.5c-0.48,0-0.9-0.18-1.261-0.54
		c-0.359-0.36-0.54-0.78-0.54-1.26V9.62h-7.319V40.7c0,0.479-0.181,0.899-0.54,1.26c-0.36,0.36-0.801,0.54-1.32,0.54h-5.46
		c-0.48,0-0.9-0.18-1.26-0.54c-0.36-0.36-0.54-0.78-0.54-1.26V9.62h-7.38V40.7c0,0.479-0.171,0.899-0.511,1.26
		s-0.771,0.54-1.29,0.54h-5.46c-0.52,0-0.95-0.18-1.29-0.54s-0.51-0.78-0.51-1.26V2.3c0-0.48,0.17-0.9,0.51-1.26
		s0.771-0.54,1.29-0.54h38.4c0.48,0,0.9,0.18,1.26,0.54c0.36,0.36,0.54,0.78,0.54,1.26v38.4c0,0.479-0.18,0.899-0.54,1.26
		c-0.359,0.36-0.779,0.54-1.26,0.54H168.56z"/>
	<path fill="#FFFFFF" stroke="#FFFFFF" stroke-miterlimit="10" d="M184.338,42.5c-0.52,0-0.95-0.18-1.29-0.54s-0.51-0.78-0.51-1.26
		V2.3c0-0.48,0.17-0.9,0.51-1.26s0.771-0.54,1.29-0.54h38.4c0.48,0,0.9,0.18,1.26,0.54c0.36,0.36,0.54,0.78,0.54,1.26v38.4
		c0,0.479-0.18,0.899-0.54,1.26c-0.359,0.36-0.779,0.54-1.26,0.54H184.338z M191.599,33.38h23.819V9.62h-23.819V33.38z"/>
	<path fill="#FFFFFF" stroke="#FFFFFF" stroke-miterlimit="10" d="M256.758,9.62V40.7c0,0.479-0.181,0.899-0.54,1.26
		c-0.36,0.36-0.801,0.54-1.32,0.54h-5.46c-0.48,0-0.9-0.18-1.26-0.54c-0.36-0.36-0.54-0.78-0.54-1.26V9.62h-14.641
		c-0.52,0-0.95-0.18-1.29-0.54s-0.51-0.78-0.51-1.26V2.3c0-0.48,0.17-0.9,0.51-1.26s0.771-0.54,1.29-0.54h38.4
		c0.48,0,0.9,0.18,1.26,0.54c0.36,0.36,0.54,0.78,0.54,1.26v5.52c0,0.48-0.18,0.9-0.54,1.26c-0.359,0.36-0.779,0.54-1.26,0.54
		H256.758z"/>
	<path fill="#FFFFFF" stroke="#FFFFFF" stroke-miterlimit="10" d="M286.97,6.494c0,1.133-0.215,1.904-0.645,2.314
		s-1.221,0.615-2.373,0.615c-1.133,0-1.909-0.2-2.329-0.601c-0.42-0.4-0.63-1.157-0.63-2.271c0-1.132,0.215-1.904,0.645-2.314
		s1.221-0.615,2.373-0.615c1.133,0,1.909,0.201,2.329,0.601C286.76,4.624,286.97,5.381,286.97,6.494z M286.413,41.768
		c0,0.156-0.039,0.289-0.117,0.396c-0.078,0.107-0.205,0.2-0.381,0.278s-0.42,0.137-0.732,0.176s-0.713,0.059-1.201,0.059
		c-0.469,0-0.859-0.02-1.172-0.059s-0.562-0.098-0.747-0.176s-0.312-0.171-0.381-0.278c-0.068-0.106-0.103-0.239-0.103-0.396V15.4
		c0-0.136,0.034-0.264,0.103-0.381s0.195-0.215,0.381-0.293c0.186-0.078,0.435-0.136,0.747-0.176
		c0.312-0.039,0.703-0.059,1.172-0.059c0.488,0,0.889,0.02,1.201,0.059c0.312,0.04,0.557,0.098,0.732,0.176
		c0.176,0.078,0.303,0.176,0.381,0.293s0.117,0.245,0.117,0.381V41.768z"/>
	<path fill="#FFFFFF" stroke="#FFFFFF" stroke-miterlimit="10" d="M302.687,26.061V40.7c0,0.479-0.171,0.899-0.511,1.26
		s-0.771,0.54-1.29,0.54h-5.46c-0.52,0-0.95-0.18-1.29-0.54s-0.51-0.78-0.51-1.26V2.3c0-0.48,0.17-0.9,0.51-1.26
		s0.771-0.54,1.29-0.54h38.4c0.48,0,0.9,0.18,1.26,0.54c0.36,0.36,0.54,0.78,0.54,1.26v5.52c0,0.48-0.18,0.9-0.54,1.26
		c-0.359,0.36-0.779,0.54-1.26,0.54h-31.14v7.32h31.14c0.48,0,0.9,0.18,1.26,0.54c0.36,0.36,0.54,0.78,0.54,1.26v5.52
		c0,0.48-0.18,0.9-0.54,1.26c-0.359,0.36-0.779,0.541-1.26,0.541H302.687z"/>
</g>
</svg>
